…
## # A tibble: 6 x 8
##   country code   year `lifespan(years… `PlasticWaste(k… `GDP(per capita…
##   <chr>   <chr> <dbl>            <dbl>            <dbl>            <dbl>
## 1 Albania ALB    1950             54.2            0.069            9927.
## 2 Albania ALB    1951             54.4            0.069            9927.
## 3 Albania ALB    1952             54.9            0.069            9927.
## 4 Albania ALB    1953             55.5            0.069            9927.
## 5 Albania ALB    1954             56.2            0.069            9927.
## 6 Albania ALB    1955             57.0            0.069            9927.
## # … with 2 more variables: Population <dbl>, GDP <dbl>

gdpdata %>% arrange(`lifespan(years)`)

## # A tibble: 10,905 x 8
##    country code   year `lifespan(years… `PlasticWaste(k… `GDP(per capita…
##    <chr>   <chr> <dbl>            <dbl>            <dbl>            <dbl>
##  1 Iceland ISL    1882             17.8            0.281           38978.
##  2 Sweden  SWE    1773             18.0            0.048           42943.
##  3 Ukraine UKR    1943             18.2            0.103            7824.
##  4 Iceland ISL    1846             18.3            0.281           38978.
##  5 Cambod… KHM    1977             18.9            0.066            2523.
##  6 Ukraine UKR    1942             19.4            0.103            7824.
##  7 Cambod… KHM    1978             19.7            0.066            2523.
##  8 Iceland ISL    1860             19.8            0.281           38978.
##  9 Pakist… PAK    1921             20.1            0.103            4284.
## 10 Cambod… KHM    1976             20.3            0.066            2523.
## # … with 10,895 more rows, and 2 more variables: Population <dbl>, GDP <dbl>

gdpdata %>% arrange(desc(`lifespan(years)`))

## # A tibble: 10,905 x 8
##    country code   year `lifespan(years… `PlasticWaste(k… `GDP(per capita…
##    <chr>   <chr> <dbl>            <dbl>            <dbl>            <dbl>
##  1 Hong K… HKG    2015             83.8            0.398           48108.
##  2 Macao   MAC    2015             83.7            0.368           98184.
##  3 Hong K… HKG    2014             83.6            0.398           48108.
##  4 Japan   JPN    2015             83.6            0.171           35750.
##  5 Macao   MAC    2014             83.5            0.368           98184.
##  6 Japan   JPN    2014             83.5            0.171           35750.
##  7 Hong K… HKG    2013             83.5            0.398           48108.
##  8 Macao   MAC    2013             83.4            0.368           98184.
##  9 Japan   JPN    2013             83.4            0.171           35750.
## 10 Hong K… HKG    2012             83.3            0.398           48108.
## # … with 10,895 more rows, and 2 more variables: Population <dbl>, GDP <dbl>

gdpdata %>% arrange(GDP)

## # A tibble: 10,905 x 8
##    country code   year `lifespan(years… `PlasticWaste(k… `GDP(per capita…
##    <chr>   <chr> <dbl>            <dbl>            <dbl>            <dbl>
##  1 Kiriba… KIR    1950             46.0            0.103            1732.
##  2 Kiriba… KIR    1951             46.1            0.103            1732.
##  3 Kiriba… KIR    1952             46.2            0.103            1732.
##  4 Kiriba… KIR    1953             46.4            0.103            1732.
##  5 Kiriba… KIR    1954             46.7            0.103            1732.
##  6 Kiriba… KIR    1955             47.0            0.103            1732.
##  7 Kiriba… KIR    1956             47.4            0.103            1732.
##  8 Kiriba… KIR    1957             47.8            0.103            1732.
##  9 Kiriba… KIR    1958             48.2            0.103            1732.
## 10 Kiriba… KIR    1959             48.7            0.103            1732.
## # … with 10,895 more rows, and 2 more variables: Population <dbl>, GDP <dbl>

gdpdata %>% arrange(desc(GDP))

## # A tibble: 10,905 x 8
##    country code   year `lifespan(years… `PlasticWaste(k… `GDP(per capita…
##    <chr>   <chr> <dbl>            <dbl>            <dbl>            <dbl>
##  1 United… USA    1880             39.4            0.335           49374.
##  2 United… USA    1890             45.2            0.335           49374.
##  3 United… USA    1901             49.3            0.335           49374.
##  4 United… USA    1902             50.5            0.335           49374.
##  5 United… USA    1903             50.6            0.335           49374.
##  6 United… USA    1904             49.6            0.335           49374.
##  7 United… USA    1905             50.3            0.335           49374.
##  8 United… USA    1906             50.1            0.335           49374.
##  9 United… USA    1907             50.2            0.335           49374.
## 10 United… USA    1908             51.9            0.335           49374.
## # … with 10,895 more rows, and 2 more variables: Population <dbl>, GDP <dbl>
…
